﻿{
    "_id": "course",
    "_type": "course",
    "title": "针对移动端优化视频内容",
    "displayTitle": "针对移动端优化视频内容",
    "body": "",
    "_buttons": {
        "_submit": {
            "buttonText": "提交",
            "ariaLabel": "点击此处提交答案。"
        },
        "_reset": {
            "buttonText": "重置",
            "ariaLabel": "点击此处重置问题。"
        },
        "_showCorrectAnswer": {
            "buttonText": "正确答案",
            "ariaLabel": "点击此处显示正确答案。"
        },
        "_hideCorrectAnswer": {
            "buttonText": "我的答案",
            "ariaLabel": "点击此处显示您所给的答案。"
        },
        "_showFeedback": {
            "buttonText": "显示反馈",
            "ariaLabel": "点击此处再次查看问题反馈。"
        },
        "remainingAttemptsText": "次剩余",
        "remainingAttemptText": "最后一次尝试",
        "disabledAriaLabel": "该按钮目前不可用。"
    },
    "_globals": {
        "_components": {
            "_accordion": {
                "ariaRegion": "本课程组件可收起，由包含显示文本的可收起内容面板构成。选择项目标题来切换这些内容面板的可视性。",
                "instruction": ""
            },
            "_blank": {
                "ariaRegion": "",
                "instruction": ""
            },
            "_gmcq": {
                "ariaRegion": "这是一个图形化的选择题组件。选定选项后，请点击下面的提交按钮。",
                "instruction": ""
            },
            "_graphic": {
                "ariaRegion": "",
                "instruction": ""
            },
            "_hotGraphic": {
                "ariaRegion": "在以下组件中，您可以选择图片热区。选择热区将触发包含显示文本图片的弹窗。选择关闭按钮关闭弹窗。",
                "instruction": ""
            },
            "_matching": {
                "ariaRegion": "本问题组件需要您从下拉列表中选择相匹配的答案。选定答案后，请点击提交按钮。",
                "instruction": ""
            },
            "_mcq": {
                "ariaRegion": "这是一个选择题组件。选定选项后，请点击下面的提交按钮。",
                "instruction": ""
            },
            "_media": {
                "ariaRegion": "这是一个视频播放媒体组件。选择播放/暂停按钮进行观看或收听。或者您可以选择下面的链接获取视频字幕。",
                "instruction": ""
            },
            "_narrative": {
                "ariaRegion": "本组件将显示一个带文本的图片集。点击左右箭头，浏览图片内容。",
                "instruction": ""
            },
            "_slider": {
                "ariaRegion": "本组件需要您选择相关值回答问题。选定相关值后，请点击下面的提交按钮。",
                "instruction": ""
            },
            "_text": {
                "ariaRegion": "",
                "instruction": ""
            },
            "_textInput": {
                "ariaRegion": "本问题组件需要您在提供的文本框中输入答案。输入答案后，请点击下面的提交按钮。",
                "instruction": ""
            }
        },
        "_extensions": {
            "_pageLevelProgress": {
                "pageLevelProgress": "页面版块",
                "pageLevelProgressEnd": "已到达页面版块列表底部。",
                "pageLevelProgressIndicatorBar": "进度条。点击此处查看当前进度，选择项目可导航至此项目。您已完成 ",
                "optionalContent": "可选内容"
            }
        },
        "_menu": {
            "_boxmenu": {
                "ariaRegion": "菜单",
                "menuItem": "菜单项。",
                "menuEnd": "已到达菜单底部。"
            }
        },
        "_accessibility": {
            "_accessibilityToggleTextOn": "打开辅助功能？",
            "_accessibilityToggleTextOff": "关闭辅助功能？",
            "_accessibilityInstructions": {
                "touch": "操作说明向左滑动浏览下一页。向右滑动浏览上一页。双击以选定。两指向上滑动至页面顶部。",
                "notouch": "操作说明使用 Tab 浏览下一页。使用 Shift+Tab 浏览上一页。使用 Enter 以选定。使用 Escape 转至页面顶部。",
                "ipad": "触屏操作说明。向左滑动浏览下一页。向右滑动浏览上一页。双击以选定。两指向上滑动至页面顶部。键盘操作说明。使用向左键浏览下一页。使用向右键浏览上一页。同时使用向上和向下键进行选择。"
            },
            "_ariaLabels": {
                "navigation": "课程导航栏",
                "menuLoaded": "菜单已加载。",
                "menu": "菜单",
                "page": "页面",
                "pageLoaded": "页面已加载。",
                "pageEnd": "已到达页面底部。",
                "previous": "返回",
                "navigationBack": "返回查看",
                "navigationDrawer": "打开课程资源。",
                "close": "关闭",
                "closeDrawer": "关闭抽屉式导航",
                "closeResources": "关闭资源",
                "resourcesEnd": "已到达资源列表底部。",
                "drawerBack": "返回抽屉式导航",
                "drawer": "侧边抽屉式导航顶部",
                "closePopup": "关闭弹窗",
                "next": "下一页",
                "done": "完成",
                "complete": "已完成",
                "incomplete": "未完成",
                "incorrect": "错误",
                "correct": "正确",
                "locked": "已锁定",
                "accessibilityToggleButton": "点击此按钮可设置打开或关闭辅助功能",
                "feedbackPopUp": "弹窗已打开。",
                "menuBack": "返回菜单",
                "visited": "已访问"
            }
        }
    },
    "_pageLevelProgress": {
        "_isEnabled": true,
        "_altText": "的本页组件已完成。"
    },
    "_bookmarking": {
        "_isEnabled": true,
        "_level": "component",
        "title": "书签",
        "body": "是否从上次退出的地方继续学习？",
        "_buttons": {
            "yes": "是",
            "no": "否"
        }
    },
    "_analytics": {
        "_isEnabled": true
    },
    "_latestTrackingId": 47
}